Py:Athena            INFO executing ROOT6Setup
ApplicationMgr       INFO Application Manager Configured successfully
AthDictLoaderSvc     INFO in initialize...
AthDictLoaderSvc     INFO acquired Dso-registry
AthenaEventLoopMgr   INFO Initializing AthenaEventLoopMgr
WriteData            INFO in initialize()
StoreGateSvc      VERBOSE Initializing StoreGateSvc
StoreGateSvc      VERBOSE Initializing StoreGateSvc
StoreGateSvc      VERBOSE ServiceLocatorHelper::service: found service EventPersistencySvc
StoreGateSvc      VERBOSE ServiceLocatorHelper::service: found service ClassIDSvc
ReadData             INFO in initialize()
ReadData             INFO Data Object producer: WriteData
ApplicationMgr       INFO Application Manager Initialized successfully
ApplicationMgr       INFO Application Manager Started successfully
AthenaEventLoopMgr   INFO   ===>>>  start of run 1    <<<===
AthenaEventLoopMgr   INFO   ===>>>  start processing event #1, run #1 0 events processed so far  <<<===
WriteData            INFO in execute()
 object not modifiable when retrieved
WriteData         WARNING we expect  an error message here
StoreGateSvc WARNING  setupProxy:: error setting up proxy for key  and clid 8000
WriteData         WARNING end of error message
 object not modifiable when retrieved
 object not modifiable when retrieved
 object not modifiable when retrieved
 object not modifiable when retrieved
 object not modifiable when retrieved
WriteData            INFO  registered all data objects
WriteData            INFO  StoreGate structure before returning from execute 
StoreGateSvc: <<<<<<<<<<<<<<<<< Data Store Dump >>>>>>>>>>>>>>> 
StoreGateSvc: StoreGateSvc()::dump() which is NOT LOADED 
StoreGateSvc: Found 2 proxies for ClassID 1434 (BaseClass): 
StoreGateSvc: Found 1 proxy for ClassID 2101 (EventInfo): 
StoreGateSvc: Found 3 proxies for ClassID 8000 (MyDataObj): 
StoreGateSvc: Found 1 proxy for ClassID 9967 (DataVector<MyContObj>): 
StoreGateSvc: Found 1 proxy for ClassID 9983 (std::vector< ElementLink<MapStringFloat> >): 
StoreGateSvc: Found 1 proxy for ClassID 9984 (std::list< ElementLink< std::vector<float> > >): 
StoreGateSvc: Found 1 proxy for ClassID 33347479 (SG::AuxVectorBase): 
StoreGateSvc: Found 1 proxy for ClassID 55596997 (EventContext): 
StoreGateSvc: Found 1 proxy for ClassID 193758082 (std::map<std::string,float>): 
StoreGateSvc: Found 1 proxy for ClassID 202242136 (std::vector<float>): 
StoreGateSvc: <<<<<<<<<<<<<<<<<<<<<<<<<>>>>>>>>>>>>>>>>>>>>>>>> 

ReadData             INFO in execute()
ReadData             INFO Get the MyDataObj recorded by WriteData
ReadData          WARNING FIXME loop of ConstIterator bombs
ReadData             INFO Retrieved DataVector of MyContObj using a const pointer
ReadData             INFO Time: 11.3  ID: 132
ReadData             INFO Time: 41.7  ID: 291
ReadData             INFO pVec [0] = 1
ReadData             INFO pVec [1] = 2
ReadData             INFO pVec [2] = 3
ReadData             INFO event store does not contain MyDataObj with FunnyNonExistingKey
ReadData             INFO Retrieved list of links
ReadData             INFO ListVecLinks::linked element 1
ReadData             INFO ListVecLinks::linked element 3
ReadData             INFO Retrieved vector of links
ReadData             INFO  retrieve as BaseClass, print its address: 
ReadData             INFO  EventInfo :  event: 1 run: 1
AthenaEventLoopMgr   INFO   ===>>>  done processing event #1, run #1 1 events processed so far  <<<===
AthenaEventLoopMgr   INFO   ===>>>  start processing event #2, run #1 1 events processed so far  <<<===
WriteData            INFO in execute()
 object not modifiable when retrieved
WriteData         WARNING we expect  an error message here
StoreGateSvc WARNING  setupProxy:: error setting up proxy for key  and clid 8000
WriteData         WARNING end of error message
 object not modifiable when retrieved
 object not modifiable when retrieved
 object not modifiable when retrieved
 object not modifiable when retrieved
 object not modifiable when retrieved
WriteData            INFO  registered all data objects
WriteData            INFO  StoreGate structure before returning from execute 
StoreGateSvc: <<<<<<<<<<<<<<<<< Data Store Dump >>>>>>>>>>>>>>> 
StoreGateSvc: StoreGateSvc()::dump() which is NOT LOADED 
StoreGateSvc: Found 2 proxies for ClassID 1434 (BaseClass): 
StoreGateSvc: Found 1 proxy for ClassID 2101 (EventInfo): 
StoreGateSvc: Found 3 proxies for ClassID 8000 (MyDataObj): 
StoreGateSvc: Found 1 proxy for ClassID 9967 (DataVector<MyContObj>): 
StoreGateSvc: Found 1 proxy for ClassID 9983 (std::vector< ElementLink<MapStringFloat> >): 
StoreGateSvc: Found 1 proxy for ClassID 9984 (std::list< ElementLink< std::vector<float> > >): 
StoreGateSvc: Found 1 proxy for ClassID 33347479 (SG::AuxVectorBase): 
StoreGateSvc: Found 1 proxy for ClassID 38853911 (xAOD::EventAuxInfo): 
StoreGateSvc: flags: (INVALID, UNLOCKED, reset ) --- data:        0x0 --- key: EventInfoAux.
StoreGateSvc: Found 1 proxy for ClassID 45903698 (xAOD::EventInfo): 
StoreGateSvc: flags: (INVALID, locked  , reset ) --- data:        0x0 --- key: EventInfo
StoreGateSvc: Found 1 proxy for ClassID 55596997 (EventContext): 
StoreGateSvc: Found 1 proxy for ClassID 55879233 (SG::IAuxStoreIO): 
StoreGateSvc: flags: (INVALID, UNLOCKED, reset ) --- data:        0x0 --- key: EventInfoAux.
StoreGateSvc: Found 1 proxy for ClassID 178378299 (SG::IAuxStore): 
StoreGateSvc: flags: (INVALID, UNLOCKED, reset ) --- data:        0x0 --- key: EventInfoAux.
StoreGateSvc: Found 1 proxy for ClassID 187169987 (SG::IConstAuxStore): 
StoreGateSvc: flags: (INVALID, UNLOCKED, reset ) --- data:        0x0 --- key: EventInfoAux.
StoreGateSvc: Found 1 proxy for ClassID 193758082 (std::map<std::string,float>): 
StoreGateSvc: Found 1 proxy for ClassID 202242136 (std::vector<float>): 
StoreGateSvc: Found 1 proxy for ClassID 225182422 (SG::AuxElement): 
StoreGateSvc: flags: (INVALID, locked  , reset ) --- data:        0x0 --- key: EventInfo
StoreGateSvc: Found 1 proxy for ClassID 226113180 (xAOD::AuxInfoBase): 
StoreGateSvc: flags: (INVALID, UNLOCKED, reset ) --- data:        0x0 --- key: EventInfoAux.
StoreGateSvc: <<<<<<<<<<<<<<<<<<<<<<<<<>>>>>>>>>>>>>>>>>>>>>>>> 

ReadData             INFO in execute()
ReadData             INFO Get the MyDataObj recorded by WriteData
ReadData          WARNING FIXME loop of ConstIterator bombs
ReadData             INFO Retrieved DataVector of MyContObj using a const pointer
ReadData             INFO Time: 11.3  ID: 132
ReadData             INFO Time: 41.7  ID: 291
ReadData             INFO pVec [0] = 1
ReadData             INFO pVec [1] = 2
ReadData             INFO pVec [2] = 3
ReadData             INFO event store does not contain MyDataObj with FunnyNonExistingKey
ReadData             INFO Retrieved list of links
ReadData             INFO ListVecLinks::linked element 1
ReadData             INFO ListVecLinks::linked element 3
ReadData             INFO Retrieved vector of links
ReadData             INFO  retrieve as BaseClass, print its address: 
ReadData             INFO  EventInfo :  event: 2 run: 1
AthenaEventLoopMgr   INFO   ===>>>  done processing event #2, run #1 2 events processed so far  <<<===
AthenaEventLoopMgr   INFO   ===>>>  start processing event #3, run #1 2 events processed so far  <<<===
WriteData            INFO in execute()
 object not modifiable when retrieved
WriteData         WARNING we expect  an error message here
StoreGateSvc WARNING  setupProxy:: error setting up proxy for key  and clid 8000
WriteData         WARNING end of error message
 object not modifiable when retrieved
 object not modifiable when retrieved
 object not modifiable when retrieved
 object not modifiable when retrieved
 object not modifiable when retrieved
WriteData            INFO  registered all data objects
WriteData            INFO  StoreGate structure before returning from execute 
StoreGateSvc: <<<<<<<<<<<<<<<<< Data Store Dump >>>>>>>>>>>>>>> 
StoreGateSvc: StoreGateSvc()::dump() which is NOT LOADED 
StoreGateSvc: Found 2 proxies for ClassID 1434 (BaseClass): 
StoreGateSvc: Found 1 proxy for ClassID 2101 (EventInfo): 
StoreGateSvc: Found 3 proxies for ClassID 8000 (MyDataObj): 
StoreGateSvc: Found 1 proxy for ClassID 9967 (DataVector<MyContObj>): 
StoreGateSvc: Found 1 proxy for ClassID 9983 (std::vector< ElementLink<MapStringFloat> >): 
StoreGateSvc: Found 1 proxy for ClassID 9984 (std::list< ElementLink< std::vector<float> > >): 
StoreGateSvc: Found 1 proxy for ClassID 33347479 (SG::AuxVectorBase): 
StoreGateSvc: Found 1 proxy for ClassID 38853911 (xAOD::EventAuxInfo): 
StoreGateSvc: flags: (INVALID, UNLOCKED, reset ) --- data:        0x0 --- key: EventInfoAux.
StoreGateSvc: Found 1 proxy for ClassID 45903698 (xAOD::EventInfo): 
StoreGateSvc: flags: (INVALID, locked  , reset ) --- data:        0x0 --- key: EventInfo
StoreGateSvc: Found 1 proxy for ClassID 55596997 (EventContext): 
StoreGateSvc: Found 1 proxy for ClassID 55879233 (SG::IAuxStoreIO): 
StoreGateSvc: flags: (INVALID, UNLOCKED, reset ) --- data:        0x0 --- key: EventInfoAux.
StoreGateSvc: Found 1 proxy for ClassID 178378299 (SG::IAuxStore): 
StoreGateSvc: flags: (INVALID, UNLOCKED, reset ) --- data:        0x0 --- key: EventInfoAux.
StoreGateSvc: Found 1 proxy for ClassID 187169987 (SG::IConstAuxStore): 
StoreGateSvc: flags: (INVALID, UNLOCKED, reset ) --- data:        0x0 --- key: EventInfoAux.
StoreGateSvc: Found 1 proxy for ClassID 193758082 (std::map<std::string,float>): 
StoreGateSvc: Found 1 proxy for ClassID 202242136 (std::vector<float>): 
StoreGateSvc: Found 1 proxy for ClassID 225182422 (SG::AuxElement): 
StoreGateSvc: flags: (INVALID, locked  , reset ) --- data:        0x0 --- key: EventInfo
StoreGateSvc: Found 1 proxy for ClassID 226113180 (xAOD::AuxInfoBase): 
StoreGateSvc: flags: (INVALID, UNLOCKED, reset ) --- data:        0x0 --- key: EventInfoAux.
StoreGateSvc: <<<<<<<<<<<<<<<<<<<<<<<<<>>>>>>>>>>>>>>>>>>>>>>>> 

ReadData             INFO in execute()
ReadData             INFO Get the MyDataObj recorded by WriteData
ReadData          WARNING FIXME loop of ConstIterator bombs
ReadData             INFO Retrieved DataVector of MyContObj using a const pointer
ReadData             INFO Time: 11.3  ID: 132
ReadData             INFO Time: 41.7  ID: 291
ReadData             INFO pVec [0] = 1
ReadData             INFO pVec [1] = 2
ReadData             INFO pVec [2] = 3
ReadData             INFO event store does not contain MyDataObj with FunnyNonExistingKey
ReadData             INFO Retrieved list of links
ReadData             INFO ListVecLinks::linked element 1
ReadData             INFO ListVecLinks::linked element 3
ReadData             INFO Retrieved vector of links
ReadData             INFO  retrieve as BaseClass, print its address: 
ReadData             INFO  EventInfo :  event: 3 run: 1
AthenaEventLoopMgr   INFO   ===>>>  done processing event #3, run #1 3 events processed so far  <<<===
ApplicationMgr       INFO Application Manager Stopped successfully
WriteData            INFO in finalize()
ReadData             INFO in finalize()
StoreGateSvc      VERBOSE Finalizing StoreGateSvc
StoreGateSvc      VERBOSE Finalizing StoreGateSvc
AthDictLoaderSvc     INFO in finalize...
ToolSvc              INFO Removing all tools created by ToolSvc
ApplicationMgr       INFO Application Manager Finalized successfully
ApplicationMgr       INFO Application Manager Terminated successfully
Py:Athena            INFO leaving with code 0: "successful run"
