ActsPixelClusterizationAlg                                        INFO Clusterization statistics
|----------|------------|
| RDOs     |    3423993 |
| Clusters |    1165578 |
|----------|------------|
ActsStripClusterizationAlg                                        INFO Clusterization statistics
|----------|------------|
| RDOs     |    1345365 |
| Clusters |    1081478 |
|----------|------------|
ActsPixelSpacePointFormationAlg                                   INFO Space Point Formation statistics
|--------------|------------|
| Clusters     |    1165578 |
| Space Points |    1165578 |
|--------------|------------|
ActsStripSpacePointFormationAlg                                   INFO Space Point Formation statistics
|----------------------|------------|
| Clusters             |    1081478 |
| Space Points         |     325456 |
| Overlap Space Points |      94491 |
|----------------------|------------|
ActsPixelSeedingAlg                                               INFO Seed statistics
|---------------------|------------|
| Spacepoints         |    1165578 |
| Seeds               |     123544 |
| No track parameters |          0 |
|---------------------|------------|
ActsStripSeedingAlg                                               INFO Seed statistics
|---------------------|------------|
| Spacepoints         |     419947 |
| Seeds               |      24791 |
| No track parameters |          0 |
|---------------------|------------|
ActsTrackFindingAlg                                               INFO statistics
|-----------------------------------|------------|------------|------------|
|                           All eta | PPP        | SSS        | ALL        |
|-----------------------------------|------------|------------|------------|
| Input seeds                       |     123544 |      24791 |     148335 |
| No track parameters               |          0 |          0 |          0 |
| Used   seeds                      |      78158 |      15296 |      93454 |
| Cannot find track                 |      64573 |      13668 |      78241 |
| Duplicate seeds                   |      45386 |       9495 |      54881 |
| CKF tracks                        |      13585 |       1628 |      15213 |
| Rejected refined parameters       |          0 |          0 |          0 |
| selected tracks                   |      12859 |        506 |      13365 |
| Stopped tracks reaching max holes |      62450 |      14942 |      77392 |
| Seeds with more than one branch   |          0 |          0 |          0 |
| Tracks failing second CKF         |       7719 |       1487 |       9206 |
| Stopped tracks below pT cut       |       3519 |        213 |       3732 |
| Stopped tracks above max eta      |         24 |          0 |         24 |
|-----------------------------------|------------|------------|------------|
ActsTrackFindingAlg                                               INFO Ratios
|------------------------------------------|------------|------------|------------|
|                                          | PPP        | SSS        | ALL        |
|------------------------------------------|------------|------------|------------|
| failed / seeds                           |   0.522672 |   0.551329 |   0.527461 |
| duplication / seeds                      |   0.367367 |   0.383002 |    0.36998 |
| Rejected refined params / seeds          |          0 |          0 |          0 |
| selected / CKF tracks                    |   0.946559 |   0.310811 |   0.878525 |
| selected tracks / used seeds             |   0.164526 |  0.0330805 |   0.143012 |
| branched tracks / used seeds             |          0 |          0 |          0 |
| no 2nd CKF / CKF tracks                  |     0.5682 |   0.913391 |    0.60514 |
|------------------------------------------|------------|------------|------------|
| selected / CKF tracks           0.0- 0.5 |   0.997164 |  0.0358566 |   0.812834 |
|                                 0.5- 1.0 |   0.999195 |   0.138028 |   0.807765 |
|                                 1.0- 1.5 |   0.993311 |   0.133333 |   0.834925 |
|                                 1.5- 2.0 |   0.991791 |   0.636923 |   0.922523 |
|                                 2.0- 2.5 |   0.988008 |   0.481221 |   0.895904 |
|                                 2.5- 3.0 |   0.826477 |          0 |   0.826168 |
|                                 3.0- 3.5 |   0.912513 |          0 |   0.912513 |
|                                 3.5-+inf |   0.979918 |          0 |   0.979918 |
|------------------------------------------|------------|------------|------------|
ActsLargeRadiusPixelClusterPreparationAlg                         INFO Data Prep statistics
|---------|------------|
| Inputs  |    1165578 |
| Outputs |    1065123 |
|---------|------------|
ActsLargeRadiusStripClusterPreparationAlg                         INFO Data Prep statistics
|---------|------------|
| Inputs  |    1081478 |
| Outputs |    1041792 |
|---------|------------|
ActsLargeRadiusStripSpacePointPreparationAlg                      INFO Data Prep statistics
|---------|------------|
| Inputs  |     325456 |
| Outputs |     303740 |
|---------|------------|
ActsLargeRadiusStripOv...pSpacePointPreparationAlg                INFO Data Prep statistics
|---------|------------|
| Inputs  |      94491 |
| Outputs |      88349 |
|---------|------------|
ActsLargeRadiusStripSeedingAlg                                    INFO Seed statistics
|---------------------|------------|
| Spacepoints         |     392089 |
| Seeds               |       8994 |
| No track parameters |          0 |
|---------------------|------------|
ActsLargeRadiusTrackFindingAlg                                    INFO statistics
|-----------------------------------|------------|------------|
|                           All eta | SSS        | ALL        |
|-----------------------------------|------------|------------|
| Input seeds                       |       8994 |       8994 |
| No track parameters               |          0 |          0 |
| Used   seeds                      |       8955 |       8955 |
| Cannot find track                 |       8827 |       8827 |
| Duplicate seeds                   |         39 |         39 |
| CKF tracks                        |        128 |        128 |
| Rejected refined parameters       |          0 |          0 |
| selected tracks                   |         27 |         27 |
| Stopped tracks reaching max holes |       7645 |       7645 |
| Seeds with more than one branch   |          0 |          0 |
| Tracks failing second CKF         |        127 |        127 |
| Stopped tracks below pT cut       |       1309 |       1309 |
| Stopped tracks above max eta      |          0 |          0 |
|-----------------------------------|------------|------------|
ActsLargeRadiusTrackFindingAlg                                    INFO Ratios
|------------------------------------------|------------|------------|
|                                          | SSS        | ALL        |
|------------------------------------------|------------|------------|
| failed / seeds                           |   0.981432 |   0.981432 |
| duplication / seeds                      | 0.00433622 | 0.00433622 |
| Rejected refined params / seeds          |          0 |          0 |
| selected / CKF tracks                    |   0.210938 |   0.210938 |
| selected tracks / used seeds             | 0.00301508 | 0.00301508 |
| branched tracks / used seeds             |          0 |          0 |
| no 2nd CKF / CKF tracks                  |   0.992188 |   0.992188 |
|------------------------------------------|------------|------------|
| selected / CKF tracks           0.0- 0.5 |    0.15625 |    0.15625 |
|                                 0.5- 1.0 |      0.125 |      0.125 |
|                                 1.0- 1.5 |        0.1 |        0.1 |
|                                 1.5- 2.0 |   0.535714 |   0.535714 |
|                                 2.0- 2.5 |    0.09375 |    0.09375 |
|                                 2.5- 3.0 |          0 |          0 |
|                                 3.0- 3.5 |          0 |          0 |
|                                 3.5-+inf |          0 |          0 |
|------------------------------------------|------------|------------|
ActsConversionPixelClusterPreparationAlg                          INFO Data Prep statistics
|---------|------------|
| Inputs  |    1165578 |
| Outputs |      27236 |
|---------|------------|
ActsConversionStripClusterPreparationAlg                          INFO Data Prep statistics
|---------|------------|
| Inputs  |    1081478 |
| Outputs |      15529 |
|---------|------------|
ActsConversionStripSpacePointPreparationAlg                       INFO Data Prep statistics
|---------|------------|
| Inputs  |     325456 |
| Outputs |       4506 |
|---------|------------|
ActsConversionStripSeedingAlg                                     INFO Seed statistics
|---------------------|------------|
| Spacepoints         |       4506 |
| Seeds               |         45 |
| No track parameters |          0 |
|---------------------|------------|
ActsConversionTrackFindingAlg                                     INFO statistics
|-----------------------------------|------------|------------|
|                           All eta | SSS        | ALL        |
|-----------------------------------|------------|------------|
| Input seeds                       |         45 |         45 |
| No track parameters               |          0 |          0 |
| Used   seeds                      |         45 |         45 |
| Cannot find track                 |         45 |         45 |
| Duplicate seeds                   |          0 |          0 |
| CKF tracks                        |          0 |          0 |
| Rejected refined parameters       |          0 |          0 |
| selected tracks                   |          0 |          0 |
| Stopped tracks reaching max holes |         41 |         41 |
| Seeds with more than one branch   |          0 |          0 |
| Tracks failing second CKF         |          0 |          0 |
| Stopped tracks below pT cut       |          4 |          4 |
| Stopped tracks above max eta      |          0 |          0 |
|-----------------------------------|------------|------------|
ActsConversionTrackFindingAlg                                     INFO Ratios
|------------------------------------------|------------|------------|
|                                          | SSS        | ALL        |
|------------------------------------------|------------|------------|
| failed / seeds                           |          1 |          1 |
| duplication / seeds                      |          0 |          0 |
| Rejected refined params / seeds          |          0 |          0 |
| selected / CKF tracks                    |          0 |          0 |
| selected tracks / used seeds             |          0 |          0 |
| branched tracks / used seeds             |          0 |          0 |
| no 2nd CKF / CKF tracks                  |          0 |          0 |
|------------------------------------------|------------|------------|
| selected / CKF tracks           0.0- 0.5 |          0 |          0 |
|                                 0.5- 1.0 |          0 |          0 |
|                                 1.0- 1.5 |          0 |          0 |
|                                 1.5- 2.0 |          0 |          0 |
|                                 2.0- 2.5 |          0 |          0 |
|                                 2.5- 3.0 |          0 |          0 |
|                                 3.0- 3.5 |          0 |          0 |
|                                 3.5-+inf |          0 |          0 |
|------------------------------------------|------------|------------|
